R for datavis
…
### Tidying data
.panel1-tidy-auto[

```r
read_xlsx("data/co2_emissions.xlsx", skip = 1) %>%
  rename(year = 1) %>%
* pivot_longer(-year, names_to = "country", values_to = "value")
```
]
 
.panel2-tidy-auto[

```
# A tibble: 221 × 3
    year country               value
   <dbl> <chr>                 <dbl>
 1  2020 Afghanistan          12.2  
 2  2020 Albania               4.53 
 3  2020 Algeria             155.   
 4  2020 Andorra               0.466
 5  2020 Angola               22.2  
 6  2020 Anguilla              0.123
 7  2020 Antigua and Barbuda   0.430
 8  2020 Argentina           157.   
 9  2020 Armenia               5.89 
10  2020 Aruba                 0.753
# … with 211 more rows
```
…
```r
read_xlsx("data/co2_emissions.xlsx", skip = 1) %>%
  rename(year = 1) %>%
  pivot_longer(-year, names_to = "country", values_to = "value") %>%
  pivot_wider(names_from = country, values_from = value) %>%
* pivot_longer(-year, names_to = "country", values_to = "value")
```
]
 
.panel2-tidy-auto[

```
# A tibble: 221 × 3
    year country               value
   <dbl> <chr>                 <dbl>
 1  2020 Afghanistan          12.2  
 2  2020 Albania               4.53 
 3  2020 Algeria             155.   
 4  2020 Andorra               0.466
 5  2020 Angola               22.2  
 6  2020 Anguilla              0.123
 7  2020 Antigua and Barbuda   0.430
 8  2020 Argentina           157.   
 9  2020 Armenia               5.89 
10  2020 Aruba                 0.753
# … with 211 more rows
```
…
### Transforming data
.panel1-transform-auto[

```r
read_xlsx("data/co2_emissions.xlsx", skip = 1) %>%
  rename(year = 1) %>%
* pivot_longer(-year, names_to = "country", values_to = "value")
```
]
 
.panel2-transform-auto[

```
# A tibble: 221 × 3
    year country               value
   <dbl> <chr>                 <dbl>
 1  2020 Afghanistan          12.2  
 2  2020 Albania               4.53 
 3  2020 Algeria             155.   
 4  2020 Andorra               0.466
 5  2020 Angola               22.2  
 6  2020 Anguilla              0.123
 7  2020 Antigua and Barbuda   0.430
 8  2020 Argentina           157.   
 9  2020 Armenia               5.89 
10  2020 Aruba                 0.753
# … with 211 more rows
```
…
### Transforming data
.panel1-transform-auto[

```r
read_xlsx("data/co2_emissions.xlsx", skip = 1) %>%
  rename(year = 1) %>%
  pivot_longer(-year, names_to = "country", values_to = "value") %>%
* mutate(percent = value / sum(value, na.rm = TRUE))
```
]
 
.panel2-transform-auto[

```
# A tibble: 221 × 4
    year country               value    percent
   <dbl> <chr>                 <dbl>      <dbl>
 1  2020 Afghanistan          12.2   0.000360  
 2  2020 Albania               4.53  0.000134  
 3  2020 Algeria             155.    0.00459   
 4  2020 Andorra               0.466 0.0000138 
 5  2020 Angola               22.2   0.000657  
 6  2020 Anguilla              0.123 0.00000365
 7  2020 Antigua and Barbuda   0.430 0.0000127 
 8  2020 Argentina           157.    0.00464   
 9  2020 Armenia               5.89  0.000174  
10  2020 Aruba                 0.753 0.0000223 
# … with 211 more rows
```
…
```r
read_xlsx("data/co2_emissions.xlsx", skip = 1) %>%
  rename(year = 1) %>%
  pivot_longer(-year, names_to = "country", values_to = "value") %>%
  mutate(percent = value / sum(value, na.rm = TRUE)) %>%
* arrange(desc(value))
```
]
 
.panel2-transform-auto[

```
# A tibble: 221 × 4
    year country                   value percent
   <dbl> <chr>                     <dbl>   <dbl>
 1  2020 China                    10668.  0.316 
 2  2020 United States of America  4713.  0.139 
 3  2020 India                     2442.  0.0722
 4  2020 Russian Federation        1577.  0.0467
 5  2020 Japan                     1031.  0.0305
 6  2020 Iran                       745.  0.0220
 7  2020 Germany                    644.  0.0191
 8  2020 Saudi Arabia               626.  0.0185
 9  2020 South Korea                598.  0.0177
10  2020 Indonesia                  590.  0.0174
# … with 211 more rows
```
…
### Visualising data
.panel1-visualise-auto[

```r
read_xlsx("data/co2_emissions.xlsx", skip = 1) %>%
  rename(year = 1) %>%
* pivot_longer(-year, names_to = "country", values_to = "value")
```
]
 
.panel2-visualise-auto[

```
# A tibble: 221 × 3
    year country               value
   <dbl> <chr>                 <dbl>
 1  2020 Afghanistan          12.2  
 2  2020 Albania               4.53 
 3  2020 Algeria             155.   
 4  2020 Andorra               0.466
 5  2020 Angola               22.2  
 6  2020 Anguilla              0.123
 7  2020 Antigua and Barbuda   0.430
 8  2020 Argentina           157.   
 9  2020 Armenia               5.89 
10  2020 Aruba                 0.753
# … with 211 more rows
```
…
### Visualising data
.panel1-visualise-auto[

```r
read_xlsx("data/co2_emissions.xlsx", skip = 1) %>%
  rename(year = 1) %>%
  pivot_longer(-year, names_to = "country", values_to = "value") %>%
* mutate(percent = value / sum(value, na.rm = TRUE))
```
]
 
.panel2-visualise-auto[

```
# A tibble: 221 × 4
    year country               value    percent
   <dbl> <chr>                 <dbl>      <dbl>
 1  2020 Afghanistan          12.2   0.000360  
 2  2020 Albania               4.53  0.000134  
 3  2020 Algeria             155.    0.00459   
 4  2020 Andorra               0.466 0.0000138 
 5  2020 Angola               22.2   0.000657  
 6  2020 Anguilla              0.123 0.00000365
 7  2020 Antigua and Barbuda   0.430 0.0000127 
 8  2020 Argentina           157.    0.00464   
 9  2020 Armenia               5.89  0.000174  
10  2020 Aruba                 0.753 0.0000223 
# … with 211 more rows
```
…
```r
read_xlsx("data/co2_emissions.xlsx", skip = 1) %>%
  rename(year = 1) %>%
  pivot_longer(-year, names_to = "country", values_to = "value") %>%
  mutate(percent = value / sum(value, na.rm = TRUE)) %>%
* arrange(desc(value))
```
]
 
.panel2-visualise-auto[

```
# A tibble: 221 × 4
    year country                   value percent
   <dbl> <chr>                     <dbl>   <dbl>
 1  2020 China                    10668.  0.316 
 2  2020 United States of America  4713.  0.139 
 3  2020 India                     2442.  0.0722
 4  2020 Russian Federation        1577.  0.0467
 5  2020 Japan                     1031.  0.0305
 6  2020 Iran                       745.  0.0220
 7  2020 Germany                    644.  0.0191
 8  2020 Saudi Arabia               626.  0.0185
 9  2020 South Korea                598.  0.0177
10  2020 Indonesia                  590.  0.0174
# … with 211 more rows
```
…
